<?xml version="1.0" encoding="iso-8859-1"?>
<!-- Generator: Adobe Illustrator 17.1.0, SVG Export Plug-In . SVG Version: 6.00 Build 0)  -->
<!DOCTYPE svg PUBLIC "-//W3C//DTD SVG 1.1//EN" "http://www.w3.org/Graphics/SVG/1.1/DTD/svg11.dtd">
<svg version="1.1" id="Capa_1" xmlns="http://www.w3.org/2000/svg" xmlns:xlink="http://www.w3.org/1999/xlink" x="0px" y="0px"
	 viewBox="0 0 211.077 211.077" style="enable-background:new 0 0 211.077 211.077;" xml:space="preserve">
<path d="M105.47,211.077c-37.511,0-68.027-30.517-68.027-68.027v-0.987h-1.487c-11.568,0-20.98-9.411-20.98-20.979v-9.606
	c0-11.567,9.411-20.979,20.98-20.979h1.487V59.58c0-11.854,5.485-23.12,14.753-30.465c-0.332-1.607-0.506-3.262-0.506-4.943
	c0-4.318,2.3-8.755,6.152-11.867c0.039-0.031,0.078-0.062,0.119-0.091l2.334-1.666c0.082-0.059,0.168-0.112,0.258-0.161
	c0.363-0.197,0.773-0.445,1.244-0.728c2.2-1.319,5.523-3.313,11.02-4.99c7.577-2.485,15.576-3.941,24.415-4.438
	c33.875-1.902,64.061,8.079,73.374,24.27c0.004,0.007,0.007,0.013,0.011,0.02c1.202,1.946,1.999,3.408,2.774,5.074
	c7.62,16.389,1.421,33.59,0.106,36.863v24.04h1.624c11.568,0,20.979,9.411,20.979,20.979v9.606c0,11.568-9.411,20.979-20.979,20.979
	h-1.624v0.987C173.498,180.56,142.981,211.077,105.47,211.077z M42.443,139.562v3.487c0,34.753,28.274,63.027,63.027,63.027
	s63.027-28.274,63.027-63.027v-21.19h-4.429c-0.668,0-1.309-0.268-1.777-0.742c-0.47-0.476-0.73-1.118-0.723-1.786
	c0.004-0.29,0.303-29.082-1.926-37.997c-2.013-8.056-7.763-11.271-8.006-11.404c-0.597-0.325-1.041-0.882-1.221-1.537
	c-0.18-0.654-0.092-1.357,0.255-1.941c0.032-0.055,3.431-5.876,3.581-11.457c0.023-0.88-3.689-3.057-8.553-4.406
	c-5.291-1.099-9.329-1.027-9.431-1.027c-0.021,0.001-0.042,0.001-0.063,0.001h-52c-7.52,0-14.018-1.292-19.313-3.841
	c-0.886-0.427-1.738-0.908-2.555-1.44c-2.335,2.7-5.656,7.304-5.647,10.775c0.014,5.562,3.521,11.3,3.557,11.357
	c0.363,0.589,0.467,1.301,0.286,1.969c-0.182,0.668-0.631,1.23-1.242,1.555c-0.23,0.126-5.979,3.342-7.993,11.397
	c-2.229,8.918-1.93,37.707-1.926,37.997c0.008,0.668-0.253,1.311-0.723,1.786c-0.469,0.475-1.109,0.742-1.777,0.742h-4.429V139.562z
	 M173.634,137.062h1.487c8.812,0,15.979-7.168,15.979-15.979v-9.606c0-8.811-7.168-15.979-15.979-15.979h-1.487V137.062z
	 M35.956,95.498c-8.812,0-15.98,7.168-15.98,15.979v9.606c0,8.812,7.168,15.979,15.98,15.979h1.487V95.498H35.956z M166.584,116.859
	h1.913V66.594c-2.177-4.749-5.54-8.176-9.286-10.647c-0.299,4.373-1.991,8.562-3.147,10.971c2.526,1.973,6.664,6.138,8.431,13.204
	C166.493,88.118,166.608,109.461,166.584,116.859z M42.443,116.859h1.913c-0.023-7.398,0.092-28.741,2.09-36.738
	c1.762-7.043,5.878-11.204,8.405-13.185c-1.272-2.576-3.149-7.171-3.161-11.869c-0.013-5.307,4.219-11.004,6.777-13.963
	c-1.923-1.964-3.5-4.273-4.647-6.826C46.643,40.669,42.443,49.9,42.443,59.58V116.859z M136.651,44.477
	c3.389,0,23.563,0.639,33.743,15.312c0.354-1.348,0.71-2.915,1.002-4.646c-2.934-2.858-13.531-12.211-29.298-15.209
	c-11.022-2.096-24.043-1.285-36.633-0.499c-9.36,0.584-19.043,1.187-27.616,0.536c-8.314-0.632-14.077-2.801-18.019-5.228
	c1.808,2.759,4.321,5.017,7.343,6.452c4.591,2.181,10.317,3.287,17.021,3.287h52C136.258,44.48,136.414,44.477,136.651,44.477z
	 M125.357,33.6c6.125,0,12.095,0.361,17.675,1.422c13.856,2.635,23.881,9.605,29.016,13.95c0.089-2.201,0.025-4.529-0.271-6.914
	c-6.97-6.977-19.329-11.842-35.825-14.09c-8.736-1.19-18.695,0.165-29.238,1.599c-10.626,1.445-21.612,2.94-31.5,1.64
	c-10.966-1.442-15.991-5.392-18.281-8.933c-0.158,0.638-0.241,1.275-0.241,1.898c0,0.235,0.004,0.471,0.013,0.704
	c0.813,1.572,5.431,8.887,21.525,10.108c8.229,0.626,17.312,0.059,26.926-0.54C111.87,34.025,118.705,33.6,125.357,33.6z
	 M128.72,22.52c2.713,0,5.358,0.146,7.906,0.492c13.972,1.904,25.27,5.679,33.214,11.042c-0.293-0.786-0.62-1.57-0.982-2.352
	c-0.706-1.516-1.441-2.856-2.538-4.628c-0.02-0.03-0.039-0.064-0.058-0.099c-8.29-14.376-37.189-23.516-68.751-21.753
	c-8.397,0.472-15.979,1.849-23.176,4.209c-0.03,0.011-0.066,0.021-0.098,0.03l0,0c-4.911,1.511-7.892,3.298-9.868,4.484
	c-0.48,0.288-0.906,0.543-1.288,0.756l-2.152,1.535c-0.292,0.239-0.572,0.489-0.84,0.75c0.315,1.97,2.399,7.501,15.775,9.261
	c9.221,1.215,19.874-0.235,30.173-1.637C113.63,23.579,121.414,22.52,128.72,22.52z M105.47,189.303
	c-11.54,0-22.541-5.285-30.947-13.677c-0.31-0.202-0.564-0.466-0.754-0.77c-8.73-9.079-14.485-21.567-14.832-34.885
	c-0.025-0.982,0.526-1.889,1.411-2.316c0.882-0.428,1.938-0.298,2.692,0.333c9.642,8.066,23.917,12.156,42.43,12.156
	s32.788-4.09,42.431-12.156c0.754-0.631,1.809-0.761,2.692-0.333c0.885,0.428,1.437,1.334,1.411,2.316
	c-0.348,13.312-6.1,25.796-14.823,34.874c-0.192,0.312-0.453,0.583-0.771,0.787C128.004,184.021,117.007,189.303,105.47,189.303z
	 M86.129,178.577c5.877,3.626,12.503,5.726,19.341,5.726s13.463-2.1,19.34-5.726c-5.042,0.878-11.617,1.631-19.34,1.631
	C97.747,180.208,91.171,179.455,86.129,178.577z M77.236,171.344c2.394,0.762,13.073,3.864,28.234,3.864
	c15.146,0,25.823-3.097,28.232-3.863c3.927-4.108,7.184-8.996,9.493-14.367c-6.568,3.103-18.672,7.063-37.657,7.063
	c-19.046,0-31.214-3.984-37.805-7.09C70.043,162.332,73.304,167.227,77.236,171.344z M65.333,149.89
	c2.667,1.808,15.054,9.151,40.205,9.151c25.131,0,37.413-7.331,40.067-9.146c0.394-1.549,0.709-3.121,0.941-4.716
	c-10.25,6.617-24.034,9.966-41.077,9.966s-30.827-3.349-41.076-9.966C64.625,146.772,64.941,148.343,65.333,149.89z M52.871,141.209
	c-0.311,0-0.626-0.059-0.932-0.182c-1.281-0.515-1.902-1.971-1.387-3.252l0.116-0.289c2.33-5.824,7.509-9.214,12.885-8.431
	c1.366,0.199,2.313,1.468,2.113,2.834c-0.198,1.366-1.472,2.317-2.834,2.113c-3.04-0.436-6.066,1.704-7.523,5.345l-0.118,0.293
	C54.799,140.616,53.861,141.209,52.871,141.209z M158.945,141.209c-0.993,0-1.933-0.597-2.323-1.575l-0.115-0.289
	c-1.455-3.636-4.473-5.777-7.522-5.342c-1.358,0.198-2.636-0.746-2.834-2.113c-0.199-1.366,0.747-2.635,2.113-2.834
	c5.371-0.785,10.554,2.605,12.887,8.435l0.116,0.292c0.512,1.282-0.114,2.736-1.396,3.248
	C159.566,141.151,159.252,141.209,158.945,141.209z M141.038,115.74c-0.335,0-0.675-0.068-1.001-0.211l-22.167-9.698
	c-0.91-0.397-1.498-1.297-1.498-2.29s0.588-1.893,1.498-2.29l22.167-9.698c1.263-0.553,2.738,0.022,3.292,1.288
	c0.554,1.265-0.023,2.739-1.288,3.292l-16.932,7.408l16.932,7.408c1.265,0.553,1.842,2.027,1.288,3.292
	C142.918,115.18,142,115.74,141.038,115.74z M70.04,115.74c-0.963,0-1.881-0.561-2.291-1.499c-0.554-1.265,0.023-2.739,1.288-3.292
	l16.932-7.408l-16.932-7.408c-1.265-0.553-1.842-2.027-1.288-3.292c0.553-1.266,2.028-1.84,3.292-1.288l22.167,9.698
	c0.91,0.397,1.498,1.297,1.498,2.29s-0.588,1.893-1.498,2.29l-22.167,9.698C70.714,115.672,70.374,115.74,70.04,115.74z"/>
<g>
</g>
<g>
</g>
<g>
</g>
<g>
</g>
<g>
</g>
<g>
</g>
<g>
</g>
<g>
</g>
<g>
</g>
<g>
</g>
<g>
</g>
<g>
</g>
<g>
</g>
<g>
</g>
<g>
</g>
</svg>
